$date
    Mon Dec 10 17:14:14 2018
$end
$version
    MyHDL 0.10
$end
$timescale
    1ns
$end

$scope module sequence_search_tb $end
$var reg 1 ! reset $end
$var reg 1 " clk $end
$var reg 1 # data_in_tvalid $end
$var reg 32 $ data_in_tdata $end
$var reg 1 % data_in_tlast $end
$var reg 1 & data_in_tready $end
$var reg 1 ' data_out_tready $end
$var reg 1 ( data_out_tlast $end
$scope module clk_stim0 $end
$var reg 1 " clk $end
$upscope $end
$scope module sequence_search $end
$var reg 1 ! reset $end
$var reg 1 " clk $end
$var reg 32 ) sequence_ok_char_counter $end
$var reg 32 * counter $end
$var real 1 + actual_state $end
$var reg 1 , data_out_tvalid $end
$var reg 1 ( data_out_tlast $end
$var reg 1 & data_in_tready $end
$var reg 1 # data_in_tvalid $end
$var reg 32 $ data_in_tdata $end
$var reg 1 % data_in_tlast $end
$var reg 32 - data_out_tdata $end
$var reg 1 ' data_out_tready $end
$scope module seq_to_find_sig $end
$var reg 32 . seq_to_find_sig(0) $end
$var reg 32 / seq_to_find_sig(1) $end
$var reg 32 0 seq_to_find_sig(2) $end
$var reg 32 1 seq_to_find_sig(3) $end
$var reg 32 2 seq_to_find_sig(4) $end
$upscope $end
$upscope $end
$upscope $end

$enddefinitions $end
$dumpvars
0!
0"
0#
b00000000000000000000000000000000 $
0%
0&
0'
0(
b00000000000000000000000000000000 )
b00000000000000000000000000000000 *
sREAD_DATA +
0,
b00000000000000000000000000000000 -
b00000000000000000000000000000010 .
b00000000000000000000000000000011 /
b00000000000000000000000000000100 0
b00000000000000000000000000000101 1
b00000000000000000000000000000110 2
$end
#5
1"
#10
0"
#15
1"
#20
0"
#25
1"
#30
0"
#35
1"
#40
0"
#45
1"
#50
0"
#54
#55
1"
#60
0"
1!
#65
1"
1&
#70
0"
1#
#75
1"
#80
0"
b00000000000000000000000000000001 $
#85
1"
#90
0"
b00000000000000000000000000000010 $
#95
1"
b00000000000000000000000000000001 )
#100
0"
b00000000000000000000000000000011 $
#105
1"
b00000000000000000000000000000010 )
#110
0"
b00000000000000000000000000000100 $
#115
1"
b00000000000000000000000000000011 )
#120
0"
b00000000000000000000000000000101 $
#121
#125
1"
b00000000000000000000000000000100 )
#130
0"
1'
b00000000000000000000000000000110 $
#135
1"
b00000000000000000000000000000000 )
b00000000000000000000000000000001 *
#140
0"
b00000000000000000000000000000111 $
#145
1"
#150
0"
b00000000000000000000000000001000 $
#155
1"
#160
0"
b00000000000000000000000000001001 $
#165
1"
#170
0"
b00000000000000000000000000000000 $
#175
1"
#180
0"
b00000000000000000000000000000001 $
#185
1"
#190
0"
b00000000000000000000000000000010 $
#195
1"
b00000000000000000000000000000001 )
#200
0"
b00000000000000000000000000000011 $
#205
1"
b00000000000000000000000000000010 )
#210
0"
b00000000000000000000000000000100 $
#215
1"
b00000000000000000000000000000011 )
#220
0"
b00000000000000000000000000000101 $
#225
1"
b00000000000000000000000000000100 )
#230
0"
b00000000000000000000000000000110 $
#235
1"
b00000000000000000000000000000000 )
b00000000000000000000000000000010 *
#240
0"
b00000000000000000000000000000111 $
#245
1"
#250
0"
b00000000000000000000000000001000 $
#255
1"
#260
0"
b00000000000000000000000000001001 $
#265
1"
#270
0"
b00000000000000000000000000000000 $
#275
1"
#280
0"
b00000000000000000000000000000001 $
#285
1"
#290
0"
b00000000000000000000000000000010 $
#295
1"
b00000000000000000000000000000001 )
#300
0"
b00000000000000000000000000000011 $
#305
1"
b00000000000000000000000000000010 )
#310
0"
b00000000000000000000000000000100 $
#315
1"
b00000000000000000000000000000011 )
#320
0"
b00000000000000000000000000000101 $
#325
1"
b00000000000000000000000000000100 )
#330
0"
b00000000000000000000000000000110 $
#335
1"
b00000000000000000000000000000000 )
b00000000000000000000000000000011 *
#340
0"
b00000000000000000000000000000111 $
#345
1"
#350
0"
b00000000000000000000000000001000 $
#355
1"
#360
0"
b00000000000000000000000000001001 $
#365
1"
#370
0"
b00000000000000000000000000000000 $
#375
1"
#380
0"
b00000000000000000000000000000001 $
#385
1"
#390
0"
b00000000000000000000000000000010 $
#395
1"
b00000000000000000000000000000001 )
#400
0"
b00000000000000000000000000000011 $
#405
1"
b00000000000000000000000000000010 )
#410
0"
b00000000000000000000000000000100 $
#415
1"
b00000000000000000000000000000011 )
#420
0"
b00000000000000000000000000000101 $
#425
1"
b00000000000000000000000000000100 )
#430
0"
b00000000000000000000000000000110 $
#435
1"
b00000000000000000000000000000000 )
b00000000000000000000000000000100 *
#440
0"
b00000000000000000000000000000111 $
#445
1"
#450
0"
b00000000000000000000000000001000 $
#455
1"
#460
0"
b00000000000000000000000000001001 $
#465
1"
#470
0"
b00000000000000000000000000000000 $
#475
1"
#480
0"
b00000000000000000000000000000001 $
#485
1"
#490
0"
b00000000000000000000000000000010 $
#495
1"
b00000000000000000000000000000001 )
#500
0"
b00000000000000000000000000000011 $
#505
1"
b00000000000000000000000000000010 )
#510
0"
b00000000000000000000000000000100 $
#515
1"
b00000000000000000000000000000011 )
#520
0"
b00000000000000000000000000000101 $
#525
1"
b00000000000000000000000000000100 )
#530
0"
b00000000000000000000000000000110 $
#535
1"
b00000000000000000000000000000000 )
b00000000000000000000000000000101 *
#540
0"
b00000000000000000000000000000111 $
#545
1"
#550
0"
b00000000000000000000000000001000 $
#555
1"
#560
0"
b00000000000000000000000000001001 $
1%
#565
1"
sWRITE_COUNT +
#570
0"
0#
#575
1"
0&
1,
1(
b00000000000000000000000000000101 -
b00000000000000000000000000000000 *
sREAD_DATA +
#580
0"
#585
1"
0,
0(
1&
#590
0"
#595
1"
#600
0"
#605
1"
#610
0"
#615
1"
#620
0"
#625
1"
#630
0"
#635
1"
#640
0"
#645
1"
#650
0"
#655
1"
#660
0"
#665
1"
#670
0"
#675
1"
#680
0"
